"estado","qtd","posicao"
"MG",3349,1
"BA",2874,2
"SP",2699,3
"PE",2106,4
"RS",2069,5
"PR",1970,6
"CE",1963,7
"PA",1731,8
"MA",1566,9
"GO",1323,10
"PB",1232,11
"PI",1217,12
"RJ",1190,13
"SC",1145,14
"RN",878,15
"MT",828,16
"AL",735,17
"MS",652,18
"AM",617,19
"ES",505,20
"TO",442,21
"SE",435,22
"RO",378,23
"AC",332,24
"DF",233,25
"RR",169,26
"AP",160,27
