"uf","value","posicao"
"MG",16994,1
"BA",16941,2
"SP",15563,3
"PE",11775,4
"RS",11626,5
"CE",11507,6
"PR",10926,7
"PA",9607,8
"MA",9120,9
"PB",7395,10
"GO",7370,11
"PI",7302,12
"SC",6796,13
"RJ",6743,14
"RN",5346,15
"MT",4954,16
"AL",4281,17
"MS",3758,18
"AM",3635,19
"ES",2940,20
"TO",2656,21
"SE",2602,22
"RO",2210,23
"AC",1956,24
"DF",1047,25
"RR",1005,26
"AP",929,27
